**********************************************************************************************************************************
***                                                                                                                            ***
*** SIMetrix/SIMPLIS Intro Version 8.00e (x86) - 26/03/2016 13:38                                                              ***
*** Platform: Windows 10                                                                                                       ***
*** Architecture: x64                                                                                                          ***
*** Serial Number:                                                                                                             ***
*** User:                                                                                                                      ***
***                                                                                                                            ***
*** TITLE:   * C:\Users\paulj\OneDrive\Documents\Electronics\OHDSP\DEV-ADC-PCM4202-SE\Simulations\Input Filter - SIMetrix.sxsch***
*** NETLIST: C:\Users\paulj\OneDrive\Documents\Electronics\OHDSP\DEV-ADC-PCM4202-SE\Simulations\design.net                     ***
***                                                                                                                            ***
**********************************************************************************************************************************

********************************************************************************
***                                                                          ***
***                                Input Deck                                ***
***                                                                          ***
********************************************************************************

#SIMETRIX
X1 R1_P X1_inn X1_vsp X1_vsn C4_P TLE2072-301 pinnames: inp inn vsp vsn out
V1 X1_vsp 0 9
X2 R2_P R4_N X1_vsp X1_vsn X2_out TLE2072-301 pinnames: inp inn vsp vsn out
V2 0 X1_vsn 9
R1 R1_P V3_P 5.6k
V3 V3_P 0 2.5
R2 R2_P V3_P 5.6k
V4 V4_P 0  AC 1 0 Sin(0 2.0000001 1k 0 0)
R3 C4_P X1_inn 3.6k
R4 X2_out R4_N 1.5k
R5 X1_inn C1_P 1K
R6 C4_P R4_N 1.5k
R7 0 R8_P 1K
R8 R8_P V4_P 1K
R9 C3_P C4_P 40.2
R10 C3_N X2_out 40.2
C1 C1_P R8_P 100u  
C2 R8_P 0 1n  
C3 C3_P C3_N 2.7n  
C4 C4_P X1_inn 330p  
.GRAPH C3_P curveLabel= Probe3-OUT nowarn=true ylog=auto xlog=auto disabled=false 
.GRAPH C3_N curveLabel= Probe2-NODE nowarn=true ylog=auto xlog=auto disabled=false 
.KEEP C3_P V4_P
.GRAPH "db(:C3_P/:V4_P)" Curvelabel="Gain" nowarn=true yunit="dB" complete=True analysis="ac" ylog=lin xlog=auto  ydelta=20 persistence=-1 colourname=Probe3_bode_color     axisname=bodemag   
.GRAPH "ph(:C3_P/:V4_P)" Curvelabel="Phase" nowarn=true yunit="degrees" complete=True analysis="ac" ylog=lin xlog=auto  ydelta=45 persistence=-1 colourname=Probe3_bode_color   axistype=grid  axisname=bodephase  
.TRAN 1m
*.AC DEC 25 100m 10Meg
.SUBCKT TLE2072-301  1 2 3 4 5
*
C1   11 12 2.2E-12
C2    6  7 10.00E-12
DC    5 53 DX
DE   54  5 DX
DLP  90 91 DX
DLN  92 90 DX
DP    4  3 DX
EGND 99  0 POLY(2) (3,0) (4,0) 0 .5 .5
FB    7 99 POLY(5) VB VC VE VLP VLN 0 5.607E6 -6E6 6E6 6E6 -6E6
GA    6  0 11 12 333.0E-6
GCM 0  6 10 99 7.436E-9
ISS   3 10 DC 400.0E-6
HLIM 90  0 VLIM 1K
J1   11  2 10 JX
J2   12  1 10 JX
R2    6  9 100.0E3
RD1   4 11 3.003E3
RD2   4 12 3.003E3
RO1   8  5 80
RO2   7 99 80
RP 3  4 27.30E3
RSS  10 99 500.0E3
VB    9  0 DC 0
VC 3 53 DC 2.200
VE   54  4 DC 2.200
VLIM  7  8 DC 0
VLP  91  0 DC 45
VLN   0 92 DC 45
.MODEL DX D(IS=800.0E-18)
.MODEL JX PJF(IS=15.00E-12 BETA=554.5E-6 VTO=-.6)
.ENDS
*
* File: TLE2072.302
*
* TLE2072 OPERATIONAL AMPLIFIER "MACROMODEL" SUBCIRCUIT
* CREATED USING PARTS RELEASE 4.03 ON 04/06/94 AT 15:13
* REV N/A        SUPPLIES +/-15V
* CONNECTIONS:   NON-INVERTING INPUT
*                | INVERTING INPUT
*                | | POSITIVE POWER SUPPLY
*                | | | NEGATIVE POWER SUPPLY
*                | | | | OUTPUT
*                | | | | |

********************************************************************************
***                                                                          ***
*** Starting Transient analysis at 13:38                                     ***
***                                                                          ***
*** Analysis card: .TRAN 1m                                                  ***
***                                                                          ***
********************************************************************************
********************************************************************************
***                                                                          ***
***                            Simulation Options                            ***
***                                                                          ***
********************************************************************************
RELTOL                    0.001
ABSTOL                    1e-012
VNTOL                     1e-006
POINTTOL                  0.001
TEMPERATURE               27C
GMIN                      1e-012
Matrix Solver             UF KLU Version 1.1



********************************************************************************
***                                                                          ***
***                             Device parameters                            ***
***                                                                          ***
********************************************************************************
Model parameters for devices of type Diode
==========================================
Model:       X1.DX        X2.DX        

is           800a         800a         


Model parameters for devices of type JFET2
==========================================
Model:       X1.JX        X2.JX        

beta         554.5u       554.5u       
is           15p          15p          
vto          -600m        -600m        


Analysis statistics
===================

Nominal temperature = 27
Operating temperature = 27
Total iterations = 135
Transient iterations = 128
Transient timepoints = 65
Accepted timepoints = 64
Total analysis time = 0.031
Transient time = 0
Matrix reordering time = 0
L-U decomposition time = 0
Matrix solve time = 0
Load time = 0
Transient L-U decomp time = 0
Transient solve time = 0
Circuit build time = 0.015
Simulator initialise time = 0
Data write time = 0
Convergence test time = 0
LTE time = 0
JI2 Iterations = 7
Diag. GMIN stepping iterations = 0
Junc. GMIN stepping iterations = 0
Source stepping iterations = 0
PTA iterations = 0
Number of matrix fill ins = -33
Number of initial matrix elements = 222
Circuit equations = 61
State vector size = 152
Number of write buffer faults = 0

Run statistics
==============

Netlist read in time = 0
Total run time = 0.203 seconds
Analysis concluded 26/03/2016 13:38
